[gd_scene load_steps=7 format=2]

[ext_resource path="res://object/materials/generic.material" type="Material" id=1]
[ext_resource path="res://scritps/rooms/room.gd" type="Script" id=2]
[ext_resource path="res://prefabs/rooms/doorway.tscn" type="PackedScene" id=3]

[sub_resource type="ArrayMesh" id=1]
resource_name = "room_end"
surfaces/0 = {
"aabb": AABB( -6, 0, -10, 6, 4, 10 ),
"array_data": PoolByteArray( 0, 0, 0, 192, 0, 0, 0, 0, 0, 0, 0, 193, 0, 127, 0, 0, 129, 0, 0, 127, 0, 66, 128, 74, 0, 0, 0, 0, 0, 0, 0, 0, 0, 0, 0, 193, 0, 127, 0, 0, 129, 0, 0, 127, 0, 64, 128, 74, 0, 0, 0, 0, 0, 0, 0, 0, 0, 0, 0, 128, 0, 127, 0, 0, 129, 0, 0, 127, 0, 64, 128, 72, 0, 0, 0, 192, 0, 0, 0, 64, 0, 0, 0, 193, 0, 0, 127, 0, 0, 127, 0, 127, 0, 69, 255, 67, 0, 0, 0, 0, 0, 0, 0, 0, 0, 0, 0, 193, 0, 0, 127, 0, 0, 127, 0, 127, 0, 68, 255, 68, 0, 0, 0, 192, 0, 0, 0, 0, 0, 0, 0, 193, 0, 0, 127, 0, 0, 127, 0, 127, 0, 68, 255, 67, 0, 0, 0, 192, 0, 0, 0, 64, 0, 0, 0, 193, 0, 0, 127, 0, 0, 127, 0, 127, 0, 69, 255, 67, 0, 0, 0, 0, 0, 0, 128, 64, 0, 0, 0, 193, 0, 0, 127, 0, 0, 127, 0, 127, 0, 70, 255, 68, 0, 0, 0, 0, 0, 0, 0, 0, 0, 0, 0, 193, 0, 0, 127, 0, 0, 127, 0, 127, 0, 68, 255, 68, 0, 0, 192, 192, 0, 0, 128, 64, 0, 0, 0, 128, 127, 0, 0, 0, 0, 129, 0, 127, 0, 71, 128, 72, 0, 0, 192, 192, 0, 0, 0, 0, 0, 0, 0, 193, 127, 0, 0, 0, 0, 129, 0, 127, 128, 72, 0, 69, 0, 0, 192, 192, 0, 0, 0, 0, 0, 0, 0, 128, 127, 0, 0, 0, 0, 129, 0, 127, 128, 72, 128, 72, 0, 0, 192, 192, 0, 0, 128, 64, 0, 0, 0, 128, 127, 0, 0, 0, 0, 129, 0, 127, 0, 71, 128, 72, 0, 0, 192, 192, 0, 0, 128, 64, 0, 0, 0, 193, 127, 0, 0, 0, 0, 129, 0, 127, 0, 71, 0, 69, 0, 0, 192, 192, 0, 0, 0, 0, 0, 0, 0, 193, 127, 0, 0, 0, 0, 129, 0, 127, 128, 72, 0, 69, 0, 0, 192, 192, 0, 0, 128, 64, 0, 0, 0, 193, 0, 0, 127, 0, 0, 127, 0, 127, 0, 70, 255, 63, 0, 0, 128, 192, 0, 0, 0, 0, 0, 0, 0, 193, 0, 0, 127, 0, 0, 127, 0, 127, 0, 68, 255, 65, 0, 0, 192, 192, 0, 0, 0, 0, 0, 0, 0, 193, 0, 0, 127, 0, 0, 127, 0, 127, 0, 68, 255, 63, 0, 0, 192, 192, 0, 0, 128, 64, 0, 0, 0, 193, 0, 0, 127, 0, 0, 127, 0, 127, 0, 70, 255, 63, 0, 0, 128, 192, 0, 0, 0, 64, 0, 0, 0, 193, 0, 0, 127, 0, 0, 127, 0, 127, 0, 69, 255, 65, 0, 0, 128, 192, 0, 0, 0, 0, 0, 0, 0, 193, 0, 0, 127, 0, 0, 127, 0, 127, 0, 68, 255, 65, 0, 0, 0, 0, 0, 0, 128, 64, 0, 0, 0, 128, 0, 0, 129, 0, 0, 129, 0, 127, 0, 70, 255, 68, 0, 0, 192, 192, 0, 0, 0, 0, 0, 0, 0, 128, 0, 0, 129, 0, 0, 129, 0, 127, 0, 72, 255, 63, 0, 0, 0, 0, 0, 0, 0, 0, 0, 0, 0, 128, 0, 0, 129, 0, 0, 129, 0, 127, 0, 72, 255, 68, 0, 0, 0, 0, 0, 0, 128, 64, 0, 0, 0, 128, 0, 0, 129, 0, 0, 129, 0, 127, 0, 70, 255, 68, 0, 0, 192, 192, 0, 0, 128, 64, 0, 0, 0, 128, 0, 0, 129, 0, 0, 129, 0, 127, 0, 70, 255, 63, 0, 0, 192, 192, 0, 0, 0, 0, 0, 0, 0, 128, 0, 0, 129, 0, 0, 129, 0, 127, 0, 72, 255, 63, 0, 0, 192, 192, 0, 0, 128, 64, 0, 0, 0, 128, 0, 129, 0, 0, 127, 0, 0, 127, 0, 60, 0, 69, 0, 0, 0, 0, 0, 0, 128, 64, 0, 0, 0, 193, 0, 129, 0, 0, 127, 0, 0, 127, 255, 67, 128, 72, 0, 0, 192, 192, 0, 0, 128, 64, 0, 0, 0, 193, 0, 129, 0, 0, 127, 0, 0, 127, 0, 60, 127, 72, 0, 0, 192, 192, 0, 0, 128, 64, 0, 0, 0, 128, 0, 129, 0, 0, 127, 0, 0, 127, 0, 60, 0, 69, 0, 0, 0, 0, 0, 0, 128, 64, 0, 0, 0, 128, 0, 129, 0, 0, 127, 0, 0, 127, 0, 68, 0, 69, 0, 0, 0, 0, 0, 0, 128, 64, 0, 0, 0, 193, 0, 129, 0, 0, 127, 0, 0, 127, 255, 67, 128, 72, 0, 0, 192, 192, 0, 0, 0, 0, 0, 0, 0, 193, 0, 127, 0, 0, 129, 0, 0, 127, 0, 69, 127, 74, 0, 0, 128, 192, 0, 0, 0, 0, 0, 0, 0, 193, 0, 127, 0, 0, 129, 0, 0, 127, 0, 68, 128, 74, 0, 0, 192, 192, 0, 0, 0, 0, 0, 0, 0, 128, 0, 127, 0, 0, 129, 0, 0, 127, 255, 68, 128, 72, 0, 0, 128, 192, 0, 0, 0, 64, 0, 0, 0, 193, 0, 129, 0, 0, 127, 0, 0, 127, 0, 64, 0, 60, 0, 0, 0, 192, 0, 0, 0, 64, 0, 0, 32, 193, 0, 129, 0, 0, 127, 0, 0, 127, 0, 66, 255, 63, 0, 0, 128, 192, 0, 0, 0, 64, 0, 0, 32, 193, 0, 129, 0, 0, 127, 0, 0, 127, 0, 64, 0, 64, 0, 0, 128, 192, 0, 0, 0, 64, 0, 0, 0, 193, 0, 129, 0, 0, 127, 0, 0, 127, 0, 64, 0, 60, 0, 0, 0, 192, 0, 0, 0, 64, 0, 0, 0, 193, 0, 129, 0, 0, 127, 0, 0, 127, 0, 66, 0, 60, 0, 0, 0, 192, 0, 0, 0, 64, 0, 0, 32, 193, 0, 129, 0, 0, 127, 0, 0, 127, 0, 66, 255, 63, 0, 0, 0, 0, 0, 0, 0, 0, 0, 0, 0, 128, 0, 127, 0, 0, 129, 0, 0, 127, 0, 64, 128, 72, 0, 0, 128, 192, 0, 0, 0, 0, 0, 0, 0, 193, 0, 127, 0, 0, 129, 0, 0, 127, 0, 68, 128, 74, 0, 0, 0, 192, 0, 0, 0, 0, 0, 0, 0, 193, 0, 127, 0, 0, 129, 0, 0, 127, 0, 66, 128, 74, 0, 0, 0, 0, 0, 0, 0, 0, 0, 0, 0, 128, 0, 127, 0, 0, 129, 0, 0, 127, 0, 64, 128, 72, 0, 0, 192, 192, 0, 0, 0, 0, 0, 0, 0, 128, 0, 127, 0, 0, 129, 0, 0, 127, 255, 68, 128, 72, 0, 0, 128, 192, 0, 0, 0, 0, 0, 0, 0, 193, 0, 127, 0, 0, 129, 0, 0, 127, 0, 68, 128, 74, 0, 0, 192, 192, 0, 0, 128, 64, 0, 0, 0, 193, 0, 0, 127, 0, 0, 127, 0, 127, 0, 70, 255, 63, 0, 0, 0, 192, 0, 0, 0, 64, 0, 0, 0, 193, 0, 0, 127, 0, 0, 127, 0, 127, 0, 69, 255, 67, 0, 0, 128, 192, 0, 0, 0, 64, 0, 0, 0, 193, 0, 0, 127, 0, 0, 127, 0, 127, 0, 69, 255, 65, 0, 0, 192, 192, 0, 0, 128, 64, 0, 0, 0, 193, 0, 0, 127, 0, 0, 127, 0, 127, 0, 70, 255, 63, 0, 0, 0, 0, 0, 0, 128, 64, 0, 0, 0, 193, 0, 0, 127, 0, 0, 127, 0, 127, 0, 70, 255, 68, 0, 0, 0, 192, 0, 0, 0, 64, 0, 0, 0, 193, 0, 0, 127, 0, 0, 127, 0, 127, 0, 69, 255, 67, 0, 0, 0, 192, 0, 0, 0, 64, 0, 0, 32, 193, 129, 0, 0, 0, 0, 129, 0, 127, 0, 72, 0, 73, 0, 0, 0, 192, 0, 0, 0, 0, 0, 0, 0, 193, 129, 0, 0, 0, 0, 129, 0, 127, 128, 72, 128, 72, 0, 0, 0, 192, 0, 0, 0, 0, 0, 0, 32, 193, 129, 0, 0, 0, 0, 129, 0, 127, 128, 72, 0, 73, 0, 0, 0, 192, 0, 0, 0, 64, 0, 0, 32, 193, 129, 0, 0, 0, 0, 129, 0, 127, 0, 72, 0, 73, 0, 0, 0, 192, 0, 0, 0, 64, 0, 0, 0, 193, 129, 0, 0, 0, 0, 129, 0, 127, 0, 72, 128, 72, 0, 0, 0, 192, 0, 0, 0, 0, 0, 0, 0, 193, 129, 0, 0, 0, 0, 129, 0, 127, 128, 72, 128, 72, 0, 0, 128, 192, 0, 0, 0, 64, 0, 0, 0, 193, 127, 0, 0, 0, 0, 129, 0, 127, 128, 72, 0, 70, 0, 0, 128, 192, 0, 0, 0, 0, 0, 0, 32, 193, 127, 0, 0, 0, 0, 129, 0, 127, 0, 73, 0, 69, 0, 0, 128, 192, 0, 0, 0, 0, 0, 0, 0, 193, 127, 0, 0, 0, 0, 129, 0, 127, 0, 73, 0, 70, 0, 0, 128, 192, 0, 0, 0, 64, 0, 0, 0, 193, 127, 0, 0, 0, 0, 129, 0, 127, 128, 72, 0, 70, 0, 0, 128, 192, 0, 0, 0, 64, 0, 0, 32, 193, 127, 0, 0, 0, 0, 129, 0, 127, 128, 72, 0, 69, 0, 0, 128, 192, 0, 0, 0, 0, 0, 0, 32, 193, 127, 0, 0, 0, 0, 129, 0, 127, 0, 73, 0, 69, 0, 0, 0, 192, 0, 0, 0, 0, 0, 0, 0, 193, 0, 127, 0, 0, 129, 0, 0, 127, 0, 66, 128, 74, 0, 0, 128, 192, 0, 0, 0, 0, 0, 0, 32, 193, 0, 127, 0, 0, 129, 0, 0, 127, 0, 68, 0, 75, 0, 0, 0, 192, 0, 0, 0, 0, 0, 0, 32, 193, 0, 127, 0, 0, 129, 0, 0, 127, 0, 66, 0, 75, 0, 0, 0, 192, 0, 0, 0, 0, 0, 0, 0, 193, 0, 127, 0, 0, 129, 0, 0, 127, 0, 66, 128, 74, 0, 0, 128, 192, 0, 0, 0, 0, 0, 0, 0, 193, 0, 127, 0, 0, 129, 0, 0, 127, 0, 68, 128, 74, 0, 0, 128, 192, 0, 0, 0, 0, 0, 0, 32, 193, 0, 127, 0, 0, 129, 0, 0, 127, 0, 68, 0, 75, 0, 0, 0, 0, 0, 0, 128, 64, 0, 0, 0, 193, 129, 0, 0, 0, 0, 129, 0, 127, 0, 72, 0, 75, 0, 0, 0, 0, 0, 0, 0, 0, 0, 0, 0, 128, 129, 0, 0, 0, 0, 129, 0, 127, 0, 73, 0, 73, 0, 0, 0, 0, 0, 0, 0, 0, 0, 0, 0, 193, 129, 0, 0, 0, 0, 129, 0, 127, 255, 72, 0, 75, 0, 0, 0, 0, 0, 0, 128, 64, 0, 0, 0, 193, 129, 0, 0, 0, 0, 129, 0, 127, 0, 72, 0, 75, 0, 0, 0, 0, 0, 0, 128, 64, 0, 0, 0, 128, 129, 0, 0, 0, 0, 129, 0, 127, 0, 72, 0, 73, 0, 0, 0, 0, 0, 0, 0, 0, 0, 0, 0, 128, 129, 0, 0, 0, 0, 129, 0, 127, 0, 73, 0, 73 ),
"array_index_data": PoolByteArray(  ),
"blend_shape_data": [  ],
"format": 97303,
"index_count": 0,
"material": ExtResource( 1 ),
"primitive": 4,
"skeleton_aabb": [  ],
"vertex_count": 78
}

[sub_resource type="ConcavePolygonShape" id=2]
data = PoolVector3Array( -2, 0, -8, 0, 0, -8, 0, 0, 0, -2, 2, -8, 0, 0, -8, -2, 0, -8, -2, 2, -8, 0, 4, -8, 0, 0, -8, -6, 4, 0, -6, 0, -8, -6, 0, 0, -6, 4, 0, -6, 4, -8, -6, 0, -8, -6, 4, -8, -4, 0, -8, -6, 0, -8, -6, 4, -8, -4, 2, -8, -4, 0, -8, 0, 4, 0, -6, 0, 0, 0, 0, 0, 0, 4, 0, -6, 4, 0, -6, 0, 0, -6, 4, 0, 0, 4, -8, -6, 4, -8, -6, 4, 0, 0, 4, 0, 0, 4, -8, -6, 0, -8, -4, 0, -8, -6, 0, 0, -4, 2, -8, -2, 2, -10, -4, 2, -10, -4, 2, -8, -2, 2, -8, -2, 2, -10, 0, 0, 0, -4, 0, -8, -2, 0, -8, 0, 0, 0, -6, 0, 0, -4, 0, -8, -6, 4, -8, -2, 2, -8, -4, 2, -8, -6, 4, -8, 0, 4, -8, -2, 2, -8, -2, 2, -10, -2, 0, -8, -2, 0, -10, -2, 2, -10, -2, 2, -8, -2, 0, -8, -4, 2, -8, -4, 0, -10, -4, 0, -8, -4, 2, -8, -4, 2, -10, -4, 0, -10, -2, 0, -8, -4, 0, -10, -2, 0, -10, -2, 0, -8, -4, 0, -8, -4, 0, -10, 0, 4, -8, 0, 0, 0, 0, 0, -8, 0, 4, -8, 0, 4, 0, 0, 0, 0 )

[sub_resource type="BoxShape" id=3]
extents = Vector3( 2.9, 1.9, 4.9 )

[node name="room_end" type="Spatial"]
script = ExtResource( 2 )
type = 5
doorways_path = NodePath("mesh/doorways")
bounds_path = NodePath("mesh/bounds")

[node name="mesh" type="MeshInstance" parent="."]
mesh = SubResource( 1 )
material/0 = null

[node name="static_body" type="StaticBody" parent="mesh"]

[node name="collision_shape" type="CollisionShape" parent="mesh/static_body"]
shape = SubResource( 2 )

[node name="bounds" type="Area" parent="mesh"]

[node name="collision_shape" type="CollisionShape" parent="mesh/bounds"]
transform = Transform( 1, 0, 0, 0, 1, 0, 0, 0, 1, -3, 2, -5 )
shape = SubResource( 3 )

[node name="doorways" type="Spatial" parent="mesh"]

[node name="doorway" parent="mesh/doorways" instance=ExtResource( 3 )]
transform = Transform( 1, 0, 0, 0, 1, 0, 0, 0, 1, -3, 1, -10 )

[node name="lights" type="Spatial" parent="."]

[node name="omni_light" type="OmniLight" parent="lights"]
transform = Transform( 1, 0, 0, 0, 1, 0, 0, 0, 1, -3, 3, -4 )
omni_range = 10.0
